[gd_scene load_steps=3 format=2]

[ext_resource path="res://Scripts/LevelItems/Respawn.gd" type="Script" id=1]

[sub_resource type="RectangleShape2D" id=1]

custom_solver_bias = 0.0
extents = Vector2( 10, 500 )

[node name="Respawn" type="Position2D"]

script = ExtResource( 1 )

[node name="Area2D" type="Area2D" parent="." index="0"]

input_pickable = true
gravity_vec = Vector2( 0, 1 )
gravity = 98.0
linear_damp = 0.1
angular_damp = 1.0
audio_bus_override = false
audio_bus_name = "Master"

[node name="CollisionShape2D" type="CollisionShape2D" parent="Area2D" index="0"]

shape = SubResource( 1 )
_sections_unfolded = [ "Transform" ]


