[gd_scene load_steps=4 format=2]

[ext_resource path="res://Scenes/LevelItems/Floor.tscn" type="PackedScene" id=1]
[ext_resource path="res://Scenes/Units/Turret.tscn" type="PackedScene" id=2]
[ext_resource path="res://Scenes/Units/Player.tscn" type="PackedScene" id=3]

[node name="TestLevel" type="Position2D"]

[node name="Floors" type="Position2D" parent="." index="0"]

[node name="Floor" parent="Floors" index="0" instance=ExtResource( 1 )]

position = Vector2( 709.615, 563.957 )
scale = Vector2( 70.7266, 1 )

[node name="Floor2" parent="Floors" index="1" instance=ExtResource( 1 )]

position = Vector2( 913.824, 185.028 )
rotation = -1.5708
scale = Vector2( 33.9959, 1 )

[node name="Turrets" type="Position2D" parent="." index="1"]

[node name="Turret" parent="Turrets" index="0" instance=ExtResource( 2 )]

position = Vector2( 595.835, 456.233 )

[node name="Player" parent="." index="2" instance=ExtResource( 3 )]

position = Vector2( 417.046, 497.504 )


